[
    {
      "name": "Bảng Điều Khiển",
      "icon": "nc-icon nc-app",
      "path": "/admin/overview"
    },
    {
      "name": "Dịch vụ",
      "icon": "nc-icon nc-send",
      "role": "product",
      "children": [{
        "name": "Tất cả dịch vụ",
        "path": "/products"
      }, {
        "name": "Nhóm dịch vụ",
        "path": "/collections"
      }, {
        "name": "Thuộc tính",
        "path": "/attributes"
      }]
    },
    {
      "name": "Khuyến mãi",
      "icon": "nc-icon nc-diamond",
      "role": "sale",
      "children": [{
        "name": "Mã giảm giá",
        "path": "/coupons"
      }, {
        "name": "Chương trình khuyến mãi",
        "path": "/sales"
      }]
    },
    {
      "name": "Khách hàng",
      "icon": "nc-icon nc-single-02",
      "role": "customer",
      "children": [{
        "name": "Khách hàng",
        "path": "/customer"
      }, {
        "name": "Nhận bản tin",
        "path": "/subscriber"
      }, {
        "name": "Liên hệ",
        "path": "/contact"
      }, {
        "name": "Đánh giá",
        "path": "/review"
      }, {
        "name": "Bình luận",
        "path": "/comment"
      }]
  
    },
    {
      "name": "Viết bài",
      "icon": "nc-icon nc-paper",
      "role": "article",
      "children": [{
        "name": "Tất cả Bài Viết",
        "path": "/articles"
      }, {
        "name": "Nhóm Bài Viết",
        "path": "/blogs"
      }, {
        "name": "Trang Nội Dung",
        "path": "/pages"
      }]
    },
    {
      "name": "Thư viện",
      "icon": "nc-icon nc-image",
      "role": "gallery",
      "children": [{
        "name": "Gallery",
        "path": "/galleries"
      }, {
        "name": "Tập tin",
        "path": "/files"
      }]
    },
    {
      "name": "Giao diện",
      "icon": "nc-icon nc-palette",
      "role": "setting",
      "children": [{
        "name": "Tùy biến giao diện",
        "path": "/setting"
      }, {
        "name": "Menu",
        "path": "/menus"
      }, {
        "name": "Custom CSS",
        "path": "/css"
      }]
    },
    {
      "name": "Cấu hình",
      "icon": "nc-icon nc-settings-gear-65",
      "role": "user",
      "children": [{
        "name": "Tài khoản quản trị",
        "path": "/users"
      }, {
        "name": "Thiết lập email",
        "path": "/email"
      }, {
        "name": "Lịch sử hoạt động",
        "path": "/history"
      }, {
        "name": "Vận chuyển",
        "path": "/shipping"
      },
      {
        "name": "Dữ liệu đã xóa",
        "path": "/deleted"
      }]
    }
]

